0036438919;Bagaric;Magdalena;2011-03-14 08:00 11:00 A209;2011-03-14 08:45:02
0036433049;Bajac;Darko;2011-03-14 08:00 11:00 A209;2011-03-14 08:48:19
0036436684;Lombarovic;Mladen;2011-03-14 11:00 14:00 A210;2011-03-14 12:08:26
0036325839;Matosic;Luka;2011-03-14 11:00 14:00 A210;2011-03-15 11:49:26