0.15;0.20;0.30;0.10;0.10;0.10;0.05
0036438919;Bagaric;Magdalena;91.5;90.75;88.25;100;87.5;87.5;90
0036439578;Bajer;Goran;64.4;72;64.75;72.5;76.25;50;62
0036436684;Lombarovic;Mladen;14.7;75.75;-;-;5;20;-